{
    "results": [
        {
            "recordType": "ECOSYSTEM",
            "elementGlobalId": 860217,
            "uniqueId": "ELEMENT_GLOBAL.2.860217",
            "nsxUrl": "/Taxon/ELEMENT_GLOBAL.2.860217/Mesomorphic_Tree_Vegetation_Class",
            "elcode": "C01",
            "scientificName": "Mesomorphic Tree Vegetation Class",
            "formattedScientificName": "Mesomorphic Tree Vegetation Class",
            "primaryCommonName": "Forest & Woodland",
            "primaryCommonNameLanguage": "EN",
            "roundedGRank": "GNR",
            "nations": [],
            "lastModified": "2020-12-23T23:13:36.091776Z",
            "classificationStatus": "Standard",
            "ecosystemGlobal": {
                "translatedScientificName": "Mesomorphic Tree Vegetation Class",
                "taxclassCode": null,
                "taxsubclassCode": null,
                "formationCode": null,
                "divisionCode": null,
                "macrogroupKey": null,
                "taxgroupKey": null,
                "allianceKey": null,
                "ecosystemType": "CLASS",
                "classificationCode": "1",
                "parentName": null
            },
            "gRank": "GNR"
        },
        {
            "recordType": "ECOSYSTEM",
            "elementGlobalId": 860211,
            "uniqueId": "ELEMENT_GLOBAL.2.860211",
            "nsxUrl": "/Taxon/ELEMENT_GLOBAL.2.860211/Mesomorphic_Shrub_Herb_Vegetation_Class",
            "elcode": "C02",
            "scientificName": "Mesomorphic Shrub & Herb Vegetation Class",
            "formattedScientificName": "Mesomorphic Shrub & Herb Vegetation Class",
            "primaryCommonName": "Shrub & Herb Vegetation",
            "primaryCommonNameLanguage": "EN",
            "roundedGRank": "GNR",
            "nations": [],
            "lastModified": "2020-12-23T23:13:34.872942Z",
            "classificationStatus": "Standard",
            "ecosystemGlobal": {
                "translatedScientificName": "Mesomorphic Shrub & Herb Vegetation Class",
                "taxclassCode": null,
                "taxsubclassCode": null,
                "formationCode": null,
                "divisionCode": null,
                "macrogroupKey": null,
                "taxgroupKey": null,
                "allianceKey": null,
                "ecosystemType": "CLASS",
                "classificationCode": "2",
                "parentName": null
            },
            "gRank": "GNR"
        },
        {
            "recordType": "ECOSYSTEM",
            "elementGlobalId": 860216,
            "uniqueId": "ELEMENT_GLOBAL.2.860216",
            "nsxUrl": "/Taxon/ELEMENT_GLOBAL.2.860216/Xeromorphic_Woodland_Scrub_Herb_Vegetation_Class",
            "elcode": "C03",
            "scientificName": "Xeromorphic Woodland, Scrub & Herb Vegetation Class",
            "formattedScientificName": "Xeromorphic Woodland, Scrub & Herb Vegetation Class",
            "primaryCommonName": "Desert & Semi-Desert",
            "primaryCommonNameLanguage": "EN",
            "roundedGRank": "GNR",
            "nations": [],
            "lastModified": "2020-12-23T23:13:36.232723Z",
            "classificationStatus": "Standard",
            "ecosystemGlobal": {
                "translatedScientificName": "Xeromorphic Woodland, Scrub & Herb Vegetation Class",
                "taxclassCode": null,
                "taxsubclassCode": null,
                "formationCode": null,
                "divisionCode": null,
                "macrogroupKey": null,
                "taxgroupKey": null,
                "allianceKey": null,
                "ecosystemType": "CLASS",
                "classificationCode": "3",
                "parentName": null
            },
            "gRank": "GNR"
        },
        {
            "recordType": "ECOSYSTEM",
            "elementGlobalId": 860213,
            "uniqueId": "ELEMENT_GLOBAL.2.860213",
            "nsxUrl": "/Taxon/ELEMENT_GLOBAL.2.860213/Cryomorphic_Scrub_Herb_Cryptogam_Vegetation_Class",
            "elcode": "C04",
            "scientificName": "Cryomorphic Scrub, Herb & Cryptogam Vegetation Class",
            "formattedScientificName": "Cryomorphic Scrub, Herb &amp; Cryptogam Vegetation Class",
            "primaryCommonName": "Polar & High Montane Scrub, Grassland & Barrens",
            "primaryCommonNameLanguage": "EN",
            "roundedGRank": "GNR",
            "nations": [],
            "lastModified": "2020-12-23T23:13:35.388626Z",
            "classificationStatus": "Standard",
            "ecosystemGlobal": {
                "translatedScientificName": "Cryomorphic Scrub, Herb & Cryptogam Vegetation Class",
                "taxclassCode": null,
                "taxsubclassCode": null,
                "formationCode": null,
                "divisionCode": null,
                "macrogroupKey": null,
                "taxgroupKey": null,
                "allianceKey": null,
                "ecosystemType": "CLASS",
                "classificationCode": "4",
                "parentName": null
            },
            "gRank": "GNR"
        },
        {
            "recordType": "ECOSYSTEM",
            "elementGlobalId": 860214,
            "uniqueId": "ELEMENT_GLOBAL.2.860214",
            "nsxUrl": "/Taxon/ELEMENT_GLOBAL.2.860214/Hydromorphic_Vegetation_Class",
            "elcode": "C05",
            "scientificName": "Hydromorphic Vegetation Class",
            "formattedScientificName": "Hydromorphic Vegetation Class",
            "primaryCommonName": "Aquatic Vegetation",
            "primaryCommonNameLanguage": "EN",
            "roundedGRank": "GNR",
            "nations": [],
            "lastModified": "2020-12-23T23:13:35.185415Z",
            "classificationStatus": "Standard",
            "ecosystemGlobal": {
                "translatedScientificName": "Hydromorphic Vegetation Class",
                "taxclassCode": null,
                "taxsubclassCode": null,
                "formationCode": null,
                "divisionCode": null,
                "macrogroupKey": null,
                "taxgroupKey": null,
                "allianceKey": null,
                "ecosystemType": "CLASS",
                "classificationCode": "5",
                "parentName": null
            },
            "gRank": "GNR"
        },
        {
            "recordType": "ECOSYSTEM",
            "elementGlobalId": 860218,
            "uniqueId": "ELEMENT_GLOBAL.2.860218",
            "nsxUrl": "/Taxon/ELEMENT_GLOBAL.2.860218/Cryptogam_-_Open_Mesomorphic_Vegetation_Class",
            "elcode": "C06",
            "scientificName": "Cryptogam - Open Mesomorphic Vegetation Class",
            "formattedScientificName": "Cryptogam - Open Mesomorphic Vegetation Class",
            "primaryCommonName": "Open Rock Vegetation",
            "primaryCommonNameLanguage": "EN",
            "roundedGRank": "GNR",
            "nations": [],
            "lastModified": "2020-12-23T23:13:35.451038Z",
            "classificationStatus": "Standard",
            "ecosystemGlobal": {
                "translatedScientificName": "Cryptogam - Open Mesomorphic Vegetation Class",
                "taxclassCode": null,
                "taxsubclassCode": null,
                "formationCode": null,
                "divisionCode": null,
                "macrogroupKey": null,
                "taxgroupKey": null,
                "allianceKey": null,
                "ecosystemType": "CLASS",
                "classificationCode": "6",
                "parentName": null
            },
            "gRank": "GNR"
        },
        {
            "recordType": "ECOSYSTEM",
            "elementGlobalId": 860232,
            "uniqueId": "ELEMENT_GLOBAL.2.860232",
            "nsxUrl": "/Taxon/ELEMENT_GLOBAL.2.860232/Tropical_Forest_Woodland_Subclass",
            "elcode": "S17",
            "scientificName": "Tropical Forest & Woodland Subclass",
            "formattedScientificName": "Tropical Forest &amp; Woodland Subclass",
            "primaryCommonName": "Tropical Forest & Woodland",
            "primaryCommonNameLanguage": "EN",
            "roundedGRank": "GNR",
            "nations": [],
            "lastModified": "2020-12-23T23:56:33.488893Z",
            "classificationStatus": "Standard",
            "ecosystemGlobal": {
                "translatedScientificName": "Tropical Forest & Woodland Subclass",
                "taxclassCode": "1",
                "taxsubclassCode": null,
                "formationCode": null,
                "divisionCode": null,
                "macrogroupKey": null,
                "taxgroupKey": null,
                "allianceKey": null,
                "ecosystemType": "SUBCLASS",
                "classificationCode": "1.A",
                "parentName": "Forest & Woodland"
            },
            "gRank": "GNR"
        },
        {
            "recordType": "ECOSYSTEM",
            "elementGlobalId": 860227,
            "uniqueId": "ELEMENT_GLOBAL.2.860227",
            "nsxUrl": "/Taxon/ELEMENT_GLOBAL.2.860227/Temperate_Boreal_Forest_Woodland_Subclass",
            "elcode": "S15",
            "scientificName": "Temperate & Boreal Forest & Woodland Subclass",
            "formattedScientificName": "Temperate &amp; Boreal Forest &amp; Woodland Subclass",
            "primaryCommonName": "Temperate & Boreal Forest & Woodland",
            "primaryCommonNameLanguage": "EN",
            "roundedGRank": "GNR",
            "nations": [],
            "lastModified": "2020-12-23T23:13:36.654235Z",
            "classificationStatus": "Standard",
            "ecosystemGlobal": {
                "translatedScientificName": "Temperate & Boreal Forest & Woodland Subclass",
                "taxclassCode": "1",
                "taxsubclassCode": null,
                "formationCode": null,
                "divisionCode": null,
                "macrogroupKey": null,
                "taxgroupKey": null,
                "allianceKey": null,
                "ecosystemType": "SUBCLASS",
                "classificationCode": "1.B",
                "parentName": "Forest & Woodland"
            },
            "gRank": "GNR"
        },
        {
            "recordType": "ECOSYSTEM",
            "elementGlobalId": 860219,
            "uniqueId": "ELEMENT_GLOBAL.2.860219",
            "nsxUrl": "/Taxon/ELEMENT_GLOBAL.2.860219/Tropical_Grassland_Savanna_Shrubland_Subclass",
            "elcode": "S01",
            "scientificName": "Tropical Grassland, Savanna & Shrubland Subclass",
            "formattedScientificName": "Tropical Grassland, Savanna & Shrubland Subclass",
            "primaryCommonName": "Tropical Grassland, Savanna & Shrubland",
            "primaryCommonNameLanguage": "EN",
            "roundedGRank": "GNR",
            "nations": [],
            "lastModified": "2020-12-23T23:13:35.919819Z",
            "classificationStatus": "Standard",
            "ecosystemGlobal": {
                "translatedScientificName": "Tropical Grassland, Savanna & Shrubland Subclass",
                "taxclassCode": "2",
                "taxsubclassCode": null,
                "formationCode": null,
                "divisionCode": null,
                "macrogroupKey": null,
                "taxgroupKey": null,
                "allianceKey": null,
                "ecosystemType": "SUBCLASS",
                "classificationCode": "2.A",
                "parentName": "Shrub & Herb Vegetation"
            },
            "gRank": "GNR"
        },
        {
            "recordType": "ECOSYSTEM",
            "elementGlobalId": 860233,
            "uniqueId": "ELEMENT_GLOBAL.2.860233",
            "nsxUrl": "/Taxon/ELEMENT_GLOBAL.2.860233/Temperate_Boreal_Grassland_Shrubland_Subclass",
            "elcode": "S18",
            "scientificName": "Temperate & Boreal Grassland & Shrubland Subclass",
            "formattedScientificName": "Temperate & Boreal Grassland & Shrubland Subclass",
            "primaryCommonName": "Temperate & Boreal Grassland & Shrubland",
            "primaryCommonNameLanguage": "EN",
            "roundedGRank": "GNR",
            "nations": [],
            "lastModified": "2020-12-23T23:13:36.513593Z",
            "classificationStatus": "Standard",
            "ecosystemGlobal": {
                "translatedScientificName": "Temperate & Boreal Grassland & Shrubland Subclass",
                "taxclassCode": "2",
                "taxsubclassCode": null,
                "formationCode": null,
                "divisionCode": null,
                "macrogroupKey": null,
                "taxgroupKey": null,
                "allianceKey": null,
                "ecosystemType": "SUBCLASS",
                "classificationCode": "2.B",
                "parentName": "Shrub & Herb Vegetation"
            },
            "gRank": "GNR"
        },
        {
            "recordType": "ECOSYSTEM",
            "elementGlobalId": 926082,
            "uniqueId": "ELEMENT_GLOBAL.2.926082",
            "nsxUrl": "/Taxon/ELEMENT_GLOBAL.2.926082/Shrub_Herb_Wetland_Subclass",
            "elcode": "S44",
            "scientificName": "Shrub & Herb Wetland Subclass",
            "formattedScientificName": "Shrub &amp; Herb Wetland Subclass",
            "primaryCommonName": "Shrub & Herb Wetland",
            "primaryCommonNameLanguage": "EN",
            "roundedGRank": "GNR",
            "nations": [],
            "lastModified": "2020-12-23T23:16:21.406642Z",
            "classificationStatus": "Standard",
            "ecosystemGlobal": {
                "translatedScientificName": "Shrub & Herb Wetland Subclass",
                "taxclassCode": "2",
                "taxsubclassCode": null,
                "formationCode": null,
                "divisionCode": null,
                "macrogroupKey": null,
                "taxgroupKey": null,
                "allianceKey": null,
                "ecosystemType": "SUBCLASS",
                "classificationCode": "2.C",
                "parentName": "Shrub & Herb Vegetation"
            },
            "gRank": "GNR"
        },
        {
            "recordType": "ECOSYSTEM",
            "elementGlobalId": 860224,
            "uniqueId": "ELEMENT_GLOBAL.2.860224",
            "nsxUrl": "/Taxon/ELEMENT_GLOBAL.2.860224/Warm_Desert_Semi-Desert_Woodland_Scrub_Grassland_Subclass",
            "elcode": "S06",
            "scientificName": "Warm Desert & Semi-Desert Woodland, Scrub & Grassland Subclass",
            "formattedScientificName": "Warm Desert & Semi-Desert Woodland, Scrub & Grassland Subclass",
            "primaryCommonName": "Warm Desert & Semi-Desert Woodland, Scrub & Grassland",
            "primaryCommonNameLanguage": "EN",
            "roundedGRank": "GNR",
            "nations": [],
            "lastModified": "2020-12-23T23:13:36.013617Z",
            "classificationStatus": "Standard",
            "ecosystemGlobal": {
                "translatedScientificName": "Warm Desert & Semi-Desert Woodland, Scrub & Grassland Subclass",
                "taxclassCode": "3",
                "taxsubclassCode": null,
                "formationCode": null,
                "divisionCode": null,
                "macrogroupKey": null,
                "taxgroupKey": null,
                "allianceKey": null,
                "ecosystemType": "SUBCLASS",
                "classificationCode": "3.A",
                "parentName": "Desert & Semi-Desert"
            },
            "gRank": "GNR"
        },
        {
            "recordType": "ECOSYSTEM",
            "elementGlobalId": 860228,
            "uniqueId": "ELEMENT_GLOBAL.2.860228",
            "nsxUrl": "/Taxon/ELEMENT_GLOBAL.2.860228/Cool_Semi-Desert_Scrub_Grassland_Subclass",
            "elcode": "S11",
            "scientificName": "Cool Semi-Desert Scrub & Grassland Subclass",
            "formattedScientificName": "Cool Semi-Desert Scrub & Grassland Subclass",
            "primaryCommonName": "Cool Semi-Desert Scrub & Grassland",
            "primaryCommonNameLanguage": "EN",
            "roundedGRank": "GNR",
            "nations": [],
            "lastModified": "2020-12-23T23:13:36.169828Z",
            "classificationStatus": "Standard",
            "ecosystemGlobal": {
                "translatedScientificName": "Cool Semi-Desert Scrub & Grassland Subclass",
                "taxclassCode": "3",
                "taxsubclassCode": null,
                "formationCode": null,
                "divisionCode": null,
                "macrogroupKey": null,
                "taxgroupKey": null,
                "allianceKey": null,
                "ecosystemType": "SUBCLASS",
                "classificationCode": "3.B",
                "parentName": "Desert & Semi-Desert"
            },
            "gRank": "GNR"
        },
        {
            "recordType": "ECOSYSTEM",
            "elementGlobalId": 860231,
            "uniqueId": "ELEMENT_GLOBAL.2.860231",
            "nsxUrl": "/Taxon/ELEMENT_GLOBAL.2.860231/Tropical_High_Montane_Scrub_Grassland_Subclass",
            "elcode": "S16",
            "scientificName": "Tropical High Montane Scrub & Grassland Subclass",
            "formattedScientificName": "Tropical High Montane Scrub & Grassland Subclass",
            "primaryCommonName": "Tropical High Montane Scrub & Grassland",
            "primaryCommonNameLanguage": "EN",
            "roundedGRank": "GNR",
            "nations": [],
            "lastModified": "2020-12-23T23:13:36.404235Z",
            "classificationStatus": "Standard",
            "ecosystemGlobal": {
                "translatedScientificName": "Tropical High Montane Scrub & Grassland Subclass",
                "taxclassCode": "4",
                "taxsubclassCode": null,
                "formationCode": null,
                "divisionCode": null,
                "macrogroupKey": null,
                "taxgroupKey": null,
                "allianceKey": null,
                "ecosystemType": "SUBCLASS",
                "classificationCode": "4.A",
                "parentName": "Polar & High Montane Scrub, Grassland & Barrens"
            },
            "gRank": "GNR"
        },
        {
            "recordType": "ECOSYSTEM",
            "elementGlobalId": 860229,
            "uniqueId": "ELEMENT_GLOBAL.2.860229",
            "nsxUrl": "/Taxon/ELEMENT_GLOBAL.2.860229/Temperate_to_Polar_Alpine_Tundra_Vegetation_Subclass",
            "elcode": "S12",
            "scientificName": "Temperate to Polar Alpine & Tundra Vegetation Subclass",
            "formattedScientificName": "Temperate to Polar Alpine &amp; Tundra Vegetation Subclass",
            "primaryCommonName": "Temperate to Polar Alpine & Tundra Vegetation",
            "primaryCommonNameLanguage": "EN",
            "roundedGRank": "GNR",
            "nations": [],
            "lastModified": "2020-12-23T23:13:37.013595Z",
            "classificationStatus": "Standard",
            "ecosystemGlobal": {
                "translatedScientificName": "Temperate to Polar Alpine & Tundra Vegetation Subclass",
                "taxclassCode": "4",
                "taxsubclassCode": null,
                "formationCode": null,
                "divisionCode": null,
                "macrogroupKey": null,
                "taxgroupKey": null,
                "allianceKey": null,
                "ecosystemType": "SUBCLASS",
                "classificationCode": "4.B",
                "parentName": "Polar & High Montane Scrub, Grassland & Barrens"
            },
            "gRank": "GNR"
        },
        {
            "recordType": "ECOSYSTEM",
            "elementGlobalId": 860226,
            "uniqueId": "ELEMENT_GLOBAL.2.860226",
            "nsxUrl": "/Taxon/ELEMENT_GLOBAL.2.860226/Saltwater_Aquatic_Vegetation_Subclass",
            "elcode": "S09",
            "scientificName": "Saltwater Aquatic Vegetation Subclass",
            "formattedScientificName": "Saltwater Aquatic Vegetation Subclass",
            "primaryCommonName": "Saltwater Aquatic Vegetation",
            "primaryCommonNameLanguage": "EN",
            "roundedGRank": "GNR",
            "nations": [],
            "lastModified": "2020-12-23T23:13:36.74826Z",
            "classificationStatus": "Standard",
            "ecosystemGlobal": {
                "translatedScientificName": "Saltwater Aquatic Vegetation Subclass",
                "taxclassCode": "5",
                "taxsubclassCode": null,
                "formationCode": null,
                "divisionCode": null,
                "macrogroupKey": null,
                "taxgroupKey": null,
                "allianceKey": null,
                "ecosystemType": "SUBCLASS",
                "classificationCode": "5.A",
                "parentName": "Aquatic Vegetation"
            },
            "gRank": "GNR"
        },
        {
            "recordType": "ECOSYSTEM",
            "elementGlobalId": 860222,
            "uniqueId": "ELEMENT_GLOBAL.2.860222",
            "nsxUrl": "/Taxon/ELEMENT_GLOBAL.2.860222/Freshwater_Aquatic_Vegetation_Subclass",
            "elcode": "S13",
            "scientificName": "Freshwater Aquatic Vegetation Subclass",
            "formattedScientificName": "Freshwater Aquatic Vegetation Subclass",
            "primaryCommonName": "Freshwater Aquatic Vegetation",
            "primaryCommonNameLanguage": "EN",
            "roundedGRank": "GNR",
            "nations": [],
            "lastModified": "2020-12-23T23:13:36.591702Z",
            "classificationStatus": "Standard",
            "ecosystemGlobal": {
                "translatedScientificName": "Freshwater Aquatic Vegetation Subclass",
                "taxclassCode": "5",
                "taxsubclassCode": null,
                "formationCode": null,
                "divisionCode": null,
                "macrogroupKey": null,
                "taxgroupKey": null,
                "allianceKey": null,
                "ecosystemType": "SUBCLASS",
                "classificationCode": "5.B",
                "parentName": "Aquatic Vegetation"
            },
            "gRank": "GNR"
        },
        {
            "recordType": "ECOSYSTEM",
            "elementGlobalId": 860220,
            "uniqueId": "ELEMENT_GLOBAL.2.860220",
            "nsxUrl": "/Taxon/ELEMENT_GLOBAL.2.860220/Tropical_Open_Rock_Vegetation_Subclass",
            "elcode": "S02",
            "scientificName": "Tropical Open Rock Vegetation Subclass",
            "formattedScientificName": "Tropical Open Rock Vegetation Subclass",
            "primaryCommonName": "Tropical Open Rock Vegetation",
            "primaryCommonNameLanguage": "EN",
            "roundedGRank": "GNR",
            "nations": [],
            "lastModified": "2020-12-23T23:13:35.513596Z",
            "classificationStatus": "Standard",
            "ecosystemGlobal": {
                "translatedScientificName": "Tropical Open Rock Vegetation Subclass",
                "taxclassCode": "6",
                "taxsubclassCode": null,
                "formationCode": null,
                "divisionCode": null,
                "macrogroupKey": null,
                "taxgroupKey": null,
                "allianceKey": null,
                "ecosystemType": "SUBCLASS",
                "classificationCode": "6.A",
                "parentName": "Open Rock Vegetation"
            },
            "gRank": "GNR"
        },
        {
            "recordType": "ECOSYSTEM",
            "elementGlobalId": 860230,
            "uniqueId": "ELEMENT_GLOBAL.2.860230",
            "nsxUrl": "/Taxon/ELEMENT_GLOBAL.2.860230/Temperate_Boreal_Open_Rock_Vegetation_Subclass",
            "elcode": "S04",
            "scientificName": "Temperate & Boreal Open Rock Vegetation Subclass",
            "formattedScientificName": "Temperate &amp; Boreal Open Rock Vegetation Subclass",
            "primaryCommonName": "Temperate & Boreal Open Rock Vegetation",
            "primaryCommonNameLanguage": "EN",
            "roundedGRank": "GNR",
            "nations": [],
            "lastModified": "2020-12-23T23:13:37.154818Z",
            "classificationStatus": "Standard",
            "ecosystemGlobal": {
                "translatedScientificName": "Temperate & Boreal Open Rock Vegetation Subclass",
                "taxclassCode": "6",
                "taxsubclassCode": null,
                "formationCode": null,
                "divisionCode": null,
                "macrogroupKey": null,
                "taxgroupKey": null,
                "allianceKey": null,
                "ecosystemType": "SUBCLASS",
                "classificationCode": "6.B",
                "parentName": "Open Rock Vegetation"
            },
            "gRank": "GNR"
        },
        {
            "recordType": "ECOSYSTEM",
            "elementGlobalId": 860270,
            "uniqueId": "ELEMENT_GLOBAL.2.860270",
            "nsxUrl": "/Taxon/ELEMENT_GLOBAL.2.860270/Tropical_Dry_Forest_Woodland_Formation",
            "elcode": "F003",
            "scientificName": "Tropical Dry Forest & Woodland Formation",
            "formattedScientificName": "Tropical Dry Forest &amp; Woodland Formation",
            "primaryCommonName": "Tropical Dry Forest & Woodland",
            "primaryCommonNameLanguage": "EN",
            "roundedGRank": "GNR",
            "nations": [
                {
                    "nationCode": "PW",
                    "roundedNRank": "NNR",
                    "subnations": []
                },
                {
                    "nationCode": "WS",
                    "roundedNRank": "NNR",
                    "subnations": []
                },
                {
                    "nationCode": "US",
                    "roundedNRank": "NNR",
                    "subnations": [
                        {
                            "subnationCode": "HI",
                            "roundedSRank": "SNR"
                        },
                        {
                            "subnationCode": "FL",
                            "roundedSRank": "SNR"
                        }
                    ]
                },
                {
                    "nationCode": "MX",
                    "roundedNRank": "NNR",
                    "subnations": []
                },
                {
                    "nationCode": "GU",
                    "roundedNRank": "NNR",
                    "subnations": []
                },
                {
                    "nationCode": "FM",
                    "roundedNRank": "NNR",
                    "subnations": []
                },
                {
                    "nationCode": "PR",
                    "roundedNRank": "NNR",
                    "subnations": []
                },
                {
                    "nationCode": "AS",
                    "roundedNRank": "NNR",
                    "subnations": []
                },
                {
                    "nationCode": "MP",
                    "roundedNRank": "NNR",
                    "subnations": []
                }
            ],
            "lastModified": "2020-12-23T23:13:38.872985Z",
            "classificationStatus": "Standard",
            "ecosystemGlobal": {
                "translatedScientificName": "Tropical Dry Forest & Woodland Formation",
                "taxclassCode": "1",
                "taxsubclassCode": "1.A",
                "formationCode": null,
                "divisionCode": null,
                "macrogroupKey": null,
                "taxgroupKey": null,
                "allianceKey": null,
                "ecosystemType": "FORMATION",
                "classificationCode": "1.A.1",
                "parentName": "Tropical Forest & Woodland"
            },
            "gRank": "GNR"
        }
    ],
    "resultsSummary": {
        "page": 0,
        "recordsPerPage": 20,
        "totalPages": 610,
        "totalResults": 12193,
        "ecosystemResults": {
            "total": 12193,
            "classes": 6,
            "subclasses": 13,
            "formations": 36,
            "divisions": 164,
            "macrogroups": 436,
            "groups": 694,
            "alliances": 1614,
            "associations": 7664,
            "terrestrialEcologicalSystems": 1566
        }
    },
    "searchCriteria": {
        "criteriaType": "ecosystems",
        "textCriteria": [],
        "statusCriteria": [],
        "locationCriteria": [],
        "pagingOptions": {
            "page": 0,
            "recordsPerPage": 20
        },
        "recordSubtypeCriteria": [],
        "modifiedSince": null,
        "locationOptions": null,
        "classificationOptions": null,
        "ecosystemsTaxonomyCriteria": []
    }
}